﻿Filedatum,Jaar,Maand Nummer,Maand Naam,Week,Fileduur,Filezwaarte,Gemiddelde Lengte
01/01/2018,2018,1,januari,1,57.4,142.07,7402.7
02/01/2018,2018,1,januari,1,869.8,2555.4,78193.11
03/01/2018,2018,1,januari,1,2244.38,6582,129548.65
04/01/2018,2018,1,januari,1,2104.6,6539.17,206335.36
05/01/2018,2018,1,januari,1,3609.95,12633.03,268240.24
06/01/2018,2018,1,januari,1,173.95,399.92,13685.43
07/01/2018,2018,1,januari,1,82.23,184.52,4336.32
08/01/2018,2018,1,januari,2,10181.27,37475.33,1371481.66
09/01/2018,2018,1,januari,2,12835.63,43311.07,1640069.6
10/01/2018,2018,1,januari,2,9307.83,32266.02,1156414.77
11/01/2018,2018,1,januari,2,14385.52,51780.55,1733027.12
12/01/2018,2018,1,januari,2,3471.77,11403.57,382247.51
13/01/2018,2018,1,januari,2,790.98,4623.57,28969.64
14/01/2018,2018,1,januari,2,192.52,702.52,8835.09
15/01/2018,2018,1,januari,3,17839.08,63798.88,2482655.17
16/01/2018,2018,1,januari,3,19960.48,78911.58,2662158.72
17/01/2018,2018,1,januari,3,11468.3,39437.2,1374442.04
18/01/2018,2018,1,januari,3,26041.42,105569.41,1900932.37
19/01/2018,2018,1,januari,3,10218.77,35720.36,1097054.29
20/01/2018,2018,1,januari,3,680.57,2064.13,49392.51
21/01/2018,2018,1,januari,3,513.87,2503.55,26867.34
22/01/2018,2018,1,januari,4,13162.67,45623.4,1678685.68
23/01/2018,2018,1,januari,4,17068.33,64867.73,2265765.36
24/01/2018,2018,1,januari,4,10906.87,36307.98,1342979.74
25/01/2018,2018,1,januari,4,14287.45,52771.57,1715581.57
26/01/2018,2018,1,januari,4,5807.5,19465.73,657525.96
27/01/2018,2018,1,januari,4,967.8,3082.08,70061.81
28/01/2018,2018,1,januari,4,227.03,531.27,11783.04
29/01/2018,2018,1,januari,5,16643.88,57026.32,2029583.95
30/01/2018,2018,1,januari,5,13295.18,45607.53,1922110.6
31/01/2018,2018,1,januari,5,10715.7,35357.18,1342180.95
01/02/2018,2018,2,februari,5,14853.32,51705.32,2127780.72
02/02/2018,2018,2,februari,5,7194.82,24128.25,778726.4
03/02/2018,2018,2,februari,5,781.97,2355.08,59332.35
04/02/2018,2018,2,februari,5,284.08,946.18,23661.51
05/02/2018,2018,2,februari,6,11589.55,39335.7,1545111.63
06/02/2018,2018,2,februari,6,13416.27,46304.12,1716599.19
07/02/2018,2018,2,februari,6,8946.7,29323.87,1255787.85
08/02/2018,2018,2,februari,6,10657.17,37193.2,1487815.9
09/02/2018,2018,2,februari,6,4814.15,15041.47,572153.45
10/02/2018,2018,2,februari,6,262.72,775.85,25295.13
11/02/2018,2018,2,februari,6,199.47,610.73,23753.53
12/02/2018,2018,2,februari,7,7465.75,27677.95,995967.63
13/02/2018,2018,2,februari,7,9183.03,32954.9,1124431.83
14/02/2018,2018,2,februari,7,6638.58,25700.97,725218.22
15/02/2018,2018,2,februari,7,16326.32,57390.56,2297897.5
16/02/2018,2018,2,februari,7,7135.7,26705.67,860364.41
17/02/2018,2018,2,februari,7,506.5,1110.33,20590.96
18/02/2018,2018,2,februari,7,246.63,843.35,16695.2
19/02/2018,2018,2,februari,8,10751.05,37661.4,1499027.58
20/02/2018,2018,2,februari,8,13118.17,48295.43,1959822.48
21/02/2018,2018,2,februari,8,6517.73,24639.05,763460.64
22/02/2018,2018,2,februari,8,13336.8,48608.68,1827962.84
23/02/2018,2018,2,februari,8,13425.1,59080.8,1446872.21
24/02/2018,2018,2,februari,8,708.52,1867.57,43291.03
25/02/2018,2018,2,februari,8,362.23,1249.38,15078.56
26/02/2018,2018,2,februari,9,5619.4,19980.25,682245.28
27/02/2018,2018,2,februari,9,7114.78,24742.18,944763.33
28/02/2018,2018,2,februari,9,5722.92,19475.05,774674.79
01/03/2018,2018,3,maart,9,5865.32,21016.62,581956.5
02/03/2018,2018,3,maart,9,1269.18,4035.28,169727.9
03/03/2018,2018,3,maart,9,440.07,1376.97,43938.95
04/03/2018,2018,3,maart,9,1473.32,5466.92,48298.29
05/03/2018,2018,3,maart,10,11521.77,36375.78,1825104.06
06/03/2018,2018,3,maart,10,11368.12,40087.48,1646458.53
07/03/2018,2018,3,maart,10,8402.93,28440.57,1112326.19
08/03/2018,2018,3,maart,10,18915.45,68571.42,2339585.05
09/03/2018,2018,3,maart,10,7484.08,27289.87,860265.59
10/03/2018,2018,3,maart,10,876.43,2634.82,79355.03
11/03/2018,2018,3,maart,10,464.48,1429.77,55678.29
12/03/2018,2018,3,maart,11,11299.55,41613.03,1705511.86
13/03/2018,2018,3,maart,11,22074.97,83594.03,3046175
14/03/2018,2018,3,maart,11,9690.77,34007.25,1123774.88
15/03/2018,2018,3,maart,11,15449.92,60855.9,1980281.2
16/03/2018,2018,3,maart,11,10726.13,36607.8,1215759.84
17/03/2018,2018,3,maart,11,650.25,1826.55,48858.76
18/03/2018,2018,3,maart,11,403.13,971.98,19129.8
19/03/2018,2018,3,maart,12,12889.95,44939.88,1790350.47
20/03/2018,2018,3,maart,12,17796.02,65077.78,2184558.62
21/03/2018,2018,3,maart,12,10229.55,37315.12,1411773.52
22/03/2018,2018,3,maart,12,21840.72,73268.42,3120628.19
23/03/2018,2018,3,maart,12,8382.92,28786.33,1057212.02
24/03/2018,2018,3,maart,12,601.75,2009.05,40233.62
25/03/2018,2018,3,maart,12,708.38,2457.83,49264.82
26/03/2018,2018,3,maart,13,17566.52,64678.02,2136680.83
27/03/2018,2018,3,maart,13,22566.92,81925.18,3063249.03
28/03/2018,2018,3,maart,13,16002.03,54028.7,2018432.59
29/03/2018,2018,3,maart,13,19180.42,70278.98,2337923.92
30/03/2018,2018,3,maart,13,8719.78,33085.48,1016678.92
31/03/2018,2018,3,maart,13,990.67,3880.3,42822.99
01/04/2018,2018,4,april,13,533.22,1754.53,44601
02/04/2018,2018,4,april,14,1933.08,6609.4,288950.56
03/04/2018,2018,4,april,14,18071.7,68737.6,2330381.63
04/04/2018,2018,4,april,14,13715.48,49780.19,1742683.67
05/04/2018,2018,4,april,14,19841.82,65907.23,2469388.42
06/04/2018,2018,4,april,14,14308.25,51973.65,1892953.1
07/04/2018,2018,4,april,14,2529.85,8789.3,154510.24
08/04/2018,2018,4,april,14,815.35,2293.93,70355.27
09/04/2018,2018,4,april,15,17781.53,62163.13,2378400.28
10/04/2018,2018,4,april,15,17012.72,59249.2,2147259.18
11/04/2018,2018,4,april,15,10276.43,37836.7,1148484.68
12/04/2018,2018,4,april,15,21003.88,69665.42,2879397.31
13/04/2018,2018,4,april,15,8826.88,29543.18,1149118.9
14/04/2018,2018,4,april,15,1826.22,4723.78,74326.24
15/04/2018,2018,4,april,15,362.03,948,29386.83
16/04/2018,2018,4,april,16,12541.73,41753,1552034.74
17/04/2018,2018,4,april,16,20300.22,68981.38,2643262.62
18/04/2018,2018,4,april,16,15820.77,53374.62,1837076.83
19/04/2018,2018,4,april,16,22781.75,84335.08,2875005.26
20/04/2018,2018,4,april,16,17333.48,63097.27,1944514.32
21/04/2018,2018,4,april,16,1635.05,5196.28,90819.27
22/04/2018,2018,4,april,16,1189.75,3792.1,80120.99
23/04/2018,2018,4,april,17,12865.85,43631.26,1736645.74
24/04/2018,2018,4,april,17,16852.58,55046.2,2450298.5
25/04/2018,2018,4,april,17,10711.08,36718.6,1234884.04
26/04/2018,2018,4,april,17,19743.63,70068.64,2633733.6
27/04/2018,2018,4,april,17,1178.37,4220.03,75933.27
28/04/2018,2018,4,april,17,678.63,1462.77,47736.08
29/04/2018,2018,4,april,17,1175.53,4225.8,71426.46
30/04/2018,2018,4,april,18,10687.28,37679.47,1125660.97
01/01/2019,2019,1,januari,1,158.2,457.8,15654.73
02/01/2019,2019,1,januari,1,400.2,1017.82,24717.85
03/01/2019,2019,1,januari,1,1336.27,4920.17,121093.57
04/01/2019,2019,1,januari,1,740.57,2370.92,79921.67
05/01/2019,2019,1,januari,1,659.95,2247.38,28895.1
06/01/2019,2019,1,januari,1,156.47,445.4,7639.44
07/01/2019,2019,1,januari,2,11274.82,37272.85,1413287.33
08/01/2019,2019,1,januari,2,13406.7,47721.1,1705080.17
09/01/2019,2019,1,januari,2,8078.92,34874.03,888235.09
10/01/2019,2019,1,januari,2,15068.78,52591.05,1877750.34
11/01/2019,2019,1,januari,2,7572.9,25739.38,889434.73
12/01/2019,2019,1,januari,2,488.62,1186.55,47514.12
13/01/2019,2019,1,januari,2,323.23,896.5,18775.79
14/01/2019,2019,1,januari,3,19446.27,65936.82,2524179.7
15/01/2019,2019,1,januari,3,15958.3,55708.1,2147076.43
16/01/2019,2019,1,januari,3,12584.35,38314.18,1425619.85
17/01/2019,2019,1,januari,3,23209.22,81029.03,2537459.17
18/01/2019,2019,1,januari,3,9896.72,34158.12,1148423.14
19/01/2019,2019,1,januari,3,1001.43,2876.67,61294.12
20/01/2019,2019,1,januari,3,281.03,680.78,22312.53
21/01/2019,2019,1,januari,4,15286.2,52416.19,2058352.39
22/01/2019,2019,1,januari,4,20186.38,103476.65,2309612.95
23/01/2019,2019,1,januari,4,8296.72,27202.25,973188.07
24/01/2019,2019,1,januari,4,12726.72,41556.8,1680317.18
25/01/2019,2019,1,januari,4,6996.6,25730.2,765835.44
26/01/2019,2019,1,januari,4,681.28,2117.52,43051.42
27/01/2019,2019,1,januari,4,189.95,379.9,14000
28/01/2019,2019,1,januari,5,15837.78,55034.17,1974766.96
29/01/2019,2019,1,januari,5,18193.55,64548.13,2352491.07
30/01/2019,2019,1,januari,5,4795.25,15577.62,609942.28
31/01/2019,2019,1,januari,5,18768.22,64438.08,2176977.53
01/02/2019,2019,2,februari,5,9182.87,27507.83,1086817.23
02/02/2019,2019,2,februari,5,477.83,1134.83,31320.17
03/02/2019,2019,2,februari,5,600.23,1558.8,37661.66
04/02/2019,2019,2,februari,6,17760.18,63777.47,1991231.98
05/02/2019,2019,2,februari,6,18824.85,62127.3,2366772.05
06/02/2019,2019,2,februari,6,15262.55,52037.68,1706672.83
07/02/2019,2019,2,februari,6,21480.85,72700.28,2943732.65
08/02/2019,2019,2,februari,6,6952.5,24277.65,663409.82
09/02/2019,2019,2,februari,6,635.95,2407.92,43670.48
10/02/2019,2019,2,februari,6,362.82,1011.27,22531.07
11/02/2019,2019,2,februari,7,13236.8,48785.92,1551668.34
12/02/2019,2019,2,februari,7,14702.81,47563.67,1854100.04
13/02/2019,2019,2,februari,7,8526.95,26631.6,1168727.41
14/02/2019,2019,2,februari,7,17029.4,62410.97,2191126.46
15/02/2019,2019,2,februari,7,13440.42,48585.3,1446415.35
16/02/2019,2019,2,februari,7,390.42,1008.67,23302.45
17/02/2019,2019,2,februari,7,584.08,1670.38,41671.28
18/02/2019,2019,2,februari,8,10362.08,34602.77,1303649.52
19/02/2019,2019,2,februari,8,12361.38,41576.03,1507647.81
20/02/2019,2019,2,februari,8,7734.97,27255.33,941288.23
21/02/2019,2019,2,februari,8,17295.9,61136.35,2261262.83
22/02/2019,2019,2,februari,8,8681.58,28439.48,1025806.25
23/02/2019,2019,2,februari,8,941.67,2453.03,71876.02
24/02/2019,2019,2,februari,8,317.77,853.67,18904.66
25/02/2019,2019,2,februari,9,11317.87,37862.32,1423943.35
26/02/2019,2019,2,februari,9,15566.63,56653.8,1821833.17
27/02/2019,2019,2,februari,9,10437.97,31679.15,1229235.81
28/02/2019,2019,2,februari,9,9276.73,29744.02,1253133.01
01/03/2019,2019,3,maart,9,5281.05,15996.65,707066.77
02/03/2019,2019,3,maart,9,524.15,1240.65,26122.44
03/03/2019,2019,3,maart,9,681.5,1489.02,28892.79
04/03/2019,2019,3,maart,10,8804.18,30232.88,1101388.33
05/03/2019,2019,3,maart,10,12626.75,42545.67,1602546.35
06/03/2019,2019,3,maart,10,10942.43,42673.78,1259658.95
07/03/2019,2019,3,maart,10,18472.85,64706.55,2602832.15
08/03/2019,2019,3,maart,10,6105.82,20817.62,706498.59
09/03/2019,2019,3,maart,10,1009.2,2914.28,57489.39
10/03/2019,2019,3,maart,10,599.03,1402.73,35547.12
11/03/2019,2019,3,maart,11,14704.32,52112.98,1943863.8
12/03/2019,2019,3,maart,11,17274.63,58260.45,2414845.98
13/03/2019,2019,3,maart,11,11572.17,41707.47,1687366.93
14/03/2019,2019,3,maart,11,18652.16,63636.48,2619049.7
15/03/2019,2019,3,maart,11,12195.83,41530.07,1564105.83
16/03/2019,2019,3,maart,11,647.08,2017.85,46745.39
17/03/2019,2019,3,maart,11,220.25,591.75,20995.94
18/03/2019,2019,3,maart,12,17234.68,59703.92,2564443.14
19/03/2019,2019,3,maart,12,15967.88,58852.83,2243179.35
20/03/2019,2019,3,maart,12,8492.42,28185.23,1257946.21
21/03/2019,2019,3,maart,12,14262.45,47092.27,2182712.97
22/03/2019,2019,3,maart,12,12936.07,47793.57,1680500.9
23/03/2019,2019,3,maart,12,440.33,1039.42,25633.81
24/03/2019,2019,3,maart,12,852.22,2834.6,59271.98
25/03/2019,2019,3,maart,13,13270.28,43486.83,1897776.05
26/03/2019,2019,3,maart,13,13349.16,41281.38,2055302.35
27/03/2019,2019,3,maart,13,8515.12,29618.67,1120561.01
28/03/2019,2019,3,maart,13,17815.48,61328.77,2267674.37
29/03/2019,2019,3,maart,13,10781.35,34857.63,1271450.54
30/03/2019,2019,3,maart,13,2178.37,6237.3,155373.33
31/03/2019,2019,3,maart,13,305.12,763.97,25981.22
01/04/2019,2019,4,april,14,14512.48,47657.63,1928197.6
02/04/2019,2019,4,april,14,19252,61339.49,2411582.61
03/04/2019,2019,4,april,14,11482.07,41273.67,1524718.51
04/04/2019,2019,4,april,14,17782.16,54891.23,2355307.74
05/04/2019,2019,4,april,14,11948.65,40860.97,1535426.84
06/04/2019,2019,4,april,14,1094.9,3060.23,65776.18
07/04/2019,2019,4,april,14,1543.65,5243.73,144896.11
08/04/2019,2019,4,april,15,14354.81,47183.7,1864243.07
09/04/2019,2019,4,april,15,21425.33,74409.23,2944731.3
10/04/2019,2019,4,april,15,15768.6,52882.18,1921392.16
11/04/2019,2019,4,april,15,23160.24,72620,3163202.31
12/04/2019,2019,4,april,15,11534.32,37146.8,1553579.11
13/04/2019,2019,4,april,15,3449.1,9860.45,271986.41
14/04/2019,2019,4,april,15,1840.37,5232.2,109947.86
15/04/2019,2019,4,april,16,21822.32,69466.83,2753017.67
16/04/2019,2019,4,april,16,26610.86,95500.07,3461427.85
17/04/2019,2019,4,april,16,18900.43,63205.95,2528902.38
18/04/2019,2019,4,april,16,28969.49,100814.02,3582020.23
19/04/2019,2019,4,april,16,30451.64,109734.6,4304701.16
20/04/2019,2019,4,april,16,2083.38,6372.52,219329.37
21/04/2019,2019,4,april,16,1070.45,2913.8,121273.71
22/04/2019,2019,4,april,17,2697.25,8526.17,309018.64
23/04/2019,2019,4,april,17,18834.7,59240.1,2400174.43
24/04/2019,2019,4,april,17,14524.9,47227.67,1834529.51
25/04/2019,2019,4,april,17,18985.84,65587.35,2595373.87
26/04/2019,2019,4,april,17,20360.7,66397.15,2628664.61
27/04/2019,2019,4,april,17,304.37,1033.27,17777.77
28/04/2019,2019,4,april,17,650.92,2035.28,45464.94
29/04/2019,2019,4,april,18,6098.6,19249.75,792798.88
30/04/2019,2019,4,april,18,6117.35,18673.9,716708.27
01/01/2020,2020,1,januari,1,233.38,608.82,26090.69
02/01/2020,2020,1,januari,1,967.78,2661.9,58901.89
03/01/2020,2020,1,januari,1,1788.13,6136.58,182745.44
04/01/2020,2020,1,januari,1,684.67,2051.25,34520.84
05/01/2020,2020,1,januari,1,90.48,197.82,11524.42
06/01/2020,2020,1,januari,2,10961,36992.55,1351096.95
07/01/2020,2020,1,januari,2,12175.3,39339.33,1671813.13
08/01/2020,2020,1,januari,2,7222.3,24163.65,884737.88
09/01/2020,2020,1,januari,2,20811.7,72648.85,2761746.6
10/01/2020,2020,1,januari,2,7000.75,25960.65,740711.53
11/01/2020,2020,1,januari,2,450.05,999.15,24972.66
12/01/2020,2020,1,januari,2,411.33,1086.3,19130
13/01/2020,2020,1,januari,3,13823.85,48416.15,1851377.2
14/01/2020,2020,1,januari,3,24090,84021.72,3244211.7
15/01/2020,2020,1,januari,3,16276.1,52022.92,2189801.05
16/01/2020,2020,1,januari,3,18534.97,60610.22,2496399.57
17/01/2020,2020,1,januari,3,6837.03,24214.1,749064.09
18/01/2020,2020,1,januari,3,1407.35,3713.67,102396.16
19/01/2020,2020,1,januari,3,100.73,224.52,5095.01
20/01/2020,2020,1,januari,4,15468.98,53229.55,2101890.92
21/01/2020,2020,1,januari,4,20718.68,74617.82,2600915.37
22/01/2020,2020,1,januari,4,15050.3,49359.25,1862194.98
23/01/2020,2020,1,januari,4,18016.27,58127.2,2363442.25
24/01/2020,2020,1,januari,4,5672.82,17510.47,610125.38
25/01/2020,2020,1,januari,4,321.25,860.35,17564.4
26/01/2020,2020,1,januari,4,426.32,1283.88,20910.03
27/01/2020,2020,1,januari,5,16881.17,57980.89,2259696.98
28/01/2020,2020,1,januari,5,21989.02,80460.47,2918639.48
29/01/2020,2020,1,januari,5,11571.57,34497.4,1589579.63
30/01/2020,2020,1,januari,5,19555.98,63387.72,2388145.55
31/01/2020,2020,1,januari,5,7771.1,23294.35,886497.96
01/02/2020,2020,2,februari,5,1154.35,3147.7,50770.51
02/02/2020,2020,2,februari,5,1169.6,3266.78,53579.37
03/02/2020,2020,2,februari,6,12831.83,45761.16,1550124.58
04/02/2020,2020,2,februari,6,21879.96,77360.35,3043532.6
05/02/2020,2020,2,februari,6,9267.43,26731.72,1200899.45
06/02/2020,2020,2,februari,6,14655.83,45860.65,2077002.53
07/02/2020,2020,2,februari,6,11868.38,41744.6,1461660.63
08/02/2020,2020,2,februari,6,1842.45,5350.38,90453.57
09/02/2020,2020,2,februari,6,190.22,428.12,10885.75
10/02/2020,2020,2,februari,7,18039.42,66159.35,2285515.82
11/02/2020,2020,2,februari,7,23121.72,80356.6,3298111.06
12/02/2020,2020,2,februari,7,9789.33,29967.92,1160591.83
13/02/2020,2020,2,februari,7,27940.01,90813.87,3609833.13
14/02/2020,2020,2,februari,7,8239.35,28500.48,1016712.76
15/02/2020,2020,2,februari,7,601.22,1776.02,48959.48
16/02/2020,2020,2,februari,7,336.13,762.87,28087.98
17/02/2020,2020,2,februari,8,11917.13,39842.18,1552125.43
18/02/2020,2020,2,februari,8,15335.42,49741.25,1884228.85
19/02/2020,2020,2,februari,8,8544.25,27132.7,1082369.58
20/02/2020,2020,2,februari,8,14197.03,46522.95,1876073.68
21/02/2020,2020,2,februari,8,11245.65,39036.63,1548298.27
22/02/2020,2020,2,februari,8,845.02,2867.08,52051.15
23/02/2020,2020,2,februari,8,313,630.13,21000
24/02/2020,2020,2,februari,9,9085.78,31241.21,1012886.06
25/02/2020,2020,2,februari,9,6087.87,19863.42,742735.56
26/02/2020,2020,2,februari,9,9186.67,31092.98,1005131.25
27/02/2020,2020,2,februari,9,13264.1,42212.93,1468536.34
28/02/2020,2020,2,februari,9,7418.73,23953.8,791141.62
29/02/2020,2020,2,februari,9,956.67,2870.93,77636.59
01/03/2020,2020,3,maart,9,452.2,1281.22,35539.93
02/03/2020,2020,3,maart,10,18574.3,60037.97,2601662.91
03/03/2020,2020,3,maart,10,21546.15,72732.08,3050491.86
04/03/2020,2020,3,maart,10,11199.7,36146.28,1454411.38
05/03/2020,2020,3,maart,10,19198.82,62122.45,2572463.95
06/03/2020,2020,3,maart,10,6304.17,19787.27,726002.06
07/03/2020,2020,3,maart,10,2657.72,7478.88,67040.49
08/03/2020,2020,3,maart,10,554.92,1529.75,26438.52
09/03/2020,2020,3,maart,11,10009.68,33722.27,1303601.42
10/03/2020,2020,3,maart,11,12817.24,41252.72,1674077.77
11/03/2020,2020,3,maart,11,4233.62,13680.87,457859.49
12/03/2020,2020,3,maart,11,7310.48,23457.08,942313.12
13/03/2020,2020,3,maart,11,582.25,1790.6,49846.14
14/03/2020,2020,3,maart,11,428.4,968.32,19526.57
15/03/2020,2020,3,maart,11,0,0,0
16/03/2020,2020,3,maart,12,399.28,981.88,37367.18
17/03/2020,2020,3,maart,12,838.02,3055.75,34115.78
18/03/2020,2020,3,maart,12,899.7,3048.35,33561.38
19/03/2020,2020,3,maart,12,287.07,984.2,21661.46
20/03/2020,2020,3,maart,12,282.72,834.85,16844.56
21/03/2020,2020,3,maart,12,0.78,2.35,3000
22/03/2020,2020,3,maart,12,0,0,0
23/03/2020,2020,3,maart,13,116.4,322.7,15524.16
24/03/2020,2020,3,maart,13,2434,6005.18,43786.81
25/03/2020,2020,3,maart,13,544.48,1846.72,15619.62
26/03/2020,2020,3,maart,13,485.7,1744.08,13616.3
27/03/2020,2020,3,maart,13,612.13,1270.37,29614.06
28/03/2020,2020,3,maart,13,0,0,0
29/03/2020,2020,3,maart,13,148.62,297.23,4000
30/03/2020,2020,3,maart,14,905.12,2546.67,51790.43
31/03/2020,2020,3,maart,14,1139.08,4066.67,47127.25
01/04/2020,2020,4,april,14,145.43,586.43,21458.16
02/04/2020,2020,4,april,14,291.22,921.72,26878.37
03/04/2020,2020,4,april,14,135.12,338.27,11159.66
04/04/2020,2020,4,april,14,37.78,75.57,2000
05/04/2020,2020,4,april,14,70.87,330.43,4662.75
06/04/2020,2020,4,april,15,255.22,534.73,13172.03
07/04/2020,2020,4,april,15,443.25,1223.17,22137.56
08/04/2020,2020,4,april,15,466.88,1232.72,22596.64
09/04/2020,2020,4,april,15,168.35,678.88,17151.45
10/04/2020,2020,4,april,15,436.23,973.37,23628.05
11/04/2020,2020,4,april,15,84.75,169.5,2000
12/04/2020,2020,4,april,15,84.75,169.5,2000
13/04/2020,2020,4,april,16,61.32,122.63,2000
14/04/2020,2020,4,april,16,115.85,239.68,6433.48
15/04/2020,2020,4,april,16,226.18,697.97,28159.48
16/04/2020,2020,4,april,16,574.02,1561.55,45982.23
17/04/2020,2020,4,april,16,520,1871.48,33266.7
18/04/2020,2020,4,april,16,19.75,39.5,2000
